{
  "project_info": {
    "project_number": "588815200595",
    "firebase_url": "https://finaluri-5c1eb-default-rtdb.firebaseio.com",
    "project_id": "finaluri-5c1eb",
    "storage_bucket": "finaluri-5c1eb.appspot.com"
  },
  "client": [
    {
      "client_info": {
        "mobilesdk_app_id": "1:588815200595:android:9f07e5de21b86e9727f1a6",
        "android_client_info": {
          "package_name": "com.example.finaluri"
        }
      },
      "oauth_client": [
        {
          "client_id": "588815200595-23anqu7rmvhc9tk2sbaq7jc76uvgtorf.apps.googleusercontent.com",
          "client_type": 3
        }
      ],
      "api_key": [
        {
          "current_key": "AIzaSyCKMWBytp-ihVjgqhNCXGi2ppFDbX5dl0M"
        }
      ],
      "services": {
        "appinvite_service": {
          "other_platform_oauth_client": [
            {
              "client_id": "588815200595-23anqu7rmvhc9tk2sbaq7jc76uvgtorf.apps.googleusercontent.com",
              "client_type": 3
            }
          ]
        }
      }
    }
  ],
  "configuration_version": "1"
}